start,end,A) Information about the Society:,Your Name:,Society_Name,Its Address:,lat,lon,_Its Address:_altitude,_Its Address:_precision,Address,Year of Establishment:,Upload a Geo-Tag Photo,No of Housing Units: ,a)Flats,b) Rowhouses,c) Independent Houses,population,When did the CHS begin the efforts towards sustainability?,B) Waste Management ,Do you have any in-house composting facility,what type of composting method are you following,Using tumbler? How Many?,Using pit? How many?,Using crusher? How Many?,If not composting at the CHS level please state the reasons for the same:,Lack of Space,Tried but the idea did not succeed due to financial constraints,Lack of leadership at CHS level,The Municipal corporation is picking up the waste,Lack of support from residents,Don’t know where to begin: Need Training & Guidance,This is not our job,Concerns about health/ safety due to having compost unit within the premises,Complaints of Foul Smell,Prefer to outsource the activity due to lack of adequate resources,Lack of Support from the Municipal Corp,Other,Is an expert supervising the process?? ,Details of Expert,Name,Address,Qualification,Services Used,color,Is the segregation at source adequate?,Any circulars or posters used to educate residents for finer segregation?,"If yes, scanned copies may be supplied",Any expert talks on this for members?," If yes, what percentage of members attended",what is done ( specific methods adopted if any ) for difficulties in segregation,i) coconut shell remnant,ii) sanitary pads,iii) metal,iv) glass,v) non-veg waste like bones,vi) cooked  waste,vii) large size vegetables,viii) mango seed,ix) any other,Are you selling the compost?,If answer is a “ Yes” what is the brand name / trademark being used?,How are you managing the dry waste generated in the household level? ,Is the housing society earning any revenue from any of the waste categories?,Please provide approx monthly revenue generated per category.,Wet waste,Plastic Bottles / Bags etc,Glass,Cardboard / Paper,Metal,Ewaste,Expenses :what is your monthly expense ( approx) towards this activity? ,What is the number of staff ( approx) employed ( whether on contract or on monthly basis) in picking up the daily waste from apartments / flats,What cooperation you would like from BMC,What cooperation you would like from BMC/a common pit in garden space for composting,What cooperation you would like from BMC/conveyance of waste daily from CHS to the pit,What cooperation you would like from BMC/composting to be managed by -CHS individually,What cooperation you would like from BMC/composting to be managed by-as group of CHS,What cooperation you would like from BMC/composting to be managed by-BMC,What cooperation you would like from BMC/Property-tax concession for expenses in composting,Before submitting the form please click on below link for Guidelines,https://docs.google.com/document/d/1kiMQjCyQp5NvyM81vZIaG4WdEW1rwmzvXP0pGncU1A0/edit?usp=sharing,Is an expert supervising the process?? ,Name,"**If no, state the uses of the compost generated at the CHS level **",**% of Use**,##### Lawns & Gardens,"<span style=""display:none"">row-% of Use</span>",##### Donated,"<span style=""display:none"">row_1-% of Use</span>",##### Other,"<span style=""display:none"">row_2-% of Use</span>",_id,_uuid,_submission_time,_validation_status,_index
2018-12-08T09:37:34.977+06:30,2018-12-08T09:42:45.090+06:30,,Amshid,Steesha,19.05163 72.823429 -104 32.928001403808594,19.05163,72.823429,-104,32.9280014038,Mt.Mary rd,,,,20,,,55,,,No,,,,,,Yes,,,,,,,,,,,,,,,,,,green,Yes,,,,,,,,,,,,,,,,,Bmc tempo,No,,,,,,,,,,,,,,,,,,,,,,,,,,,,,19171156,5a9f224c-c74c-4592-9caa-390fe7066f01,2018-12-08T04:23:17,,1
2018-12-08T09:19:11.640+06:30,2018-12-08T09:19:33.913+06:30,,,,,,,,,,,,,,,,NA,,,,,,,,,,,,,,,,,,,,,,,,,,,white,,,,,,,,,,,,,,,,,,,,,,,,,,,,,,,,,,,,,,,,,,,,,,,,19171151,2f70e418-0eec-4d69-96ec-435b4fc358b1,2018-12-08T04:22:33,,2
2018-12-08T08:46:49.582+06:30,2018-12-08T08:46:53.900+06:30,,,,,,,,,,,,,,,,NA,,,,,,,,,,,,,,,,,,,,,,,,,,,white,,,,,,,,,,,,,,,,,,,,,,,,,,,,,,,,,,,,,,,,,,,,,,,,19171138,be45c9f0-988f-4f9f-9ae2-0427507d55b8,2018-12-08T04:20:57,,3
2018-12-03T10:31:30.254+06:30,2018-12-03T10:31:37.141+06:30,,,,,,,,,,,,,,,,NA,,,,,,,,,,,,,,,,,,,,,,,,,,,white,,,,,,,,,,,,,,,,,,,,,,,,,,,,,,,,,,,,,,,,,,,,,,,,18816825,b7ed0ff0-2d46-4c4a-b0d2-a5bf4c60de62,2018-12-03T05:01:46,,4
2018-12-18T17:13:28.042+06:30,2018-12-18T17:13:48.380+06:30,,test,tsest,19.114805 72.903869 0 45,19.114805,72.903869,0,45,,,,,,,,NA,,,,,,,,,,,,,,,,,,,,,,,,,,,white,,,,,,,,,,,,,,,,,,,,,,,,,,,,,,,,,,,,,,,,,,,,,,,,19715083,357ea6df-1a3a-4aa1-a722-9250ba9c8868,2018-12-18T11:43:56,,5
2018-12-03T12:19:55.600+06:30,2018-12-04T11:02:41.937+06:30,,Deepali Sarode,Shwetali,18.940862 72.833653 0 82.5,18.940862,72.833653,0,82.5,Plot no 69 flat no 603 gorai 2 Borivali west Mumbai 92,1995-03-01,IMG_20181119_153708-10_59_57.jpg,,20,,,80,Yet to begin,,No,,,,,,,,Yes,Yes,,Yes,,,,,,,No,,,,,,white,No,No,,No,,,,Yes,,Yes,,,,,,No,,Get collected by municipality,No,,,,,,,,,,a common pit in garden space for composting composting to be managed by-as group of CHS,1,0,0,1,0,0,,,,,,,,,,,,,18878605,54ab40ad-f6e6-4dd5-9aaa-06fa6fbc8dab,2018-12-04T05:32:57,,6
2018-11-30T15:12:34.613+06:30,2018-11-30T15:12:42.260+06:30,,,,,,,,,,,,,,,,NA,,,,,,,,,,,,,,,,,,,,,,,,,,,white,,,,,,,,,,,,,,,,,,,,,,,,,,,,,,,,,,,,,,,,,,,,,,,,18692856,4e18be79-b45e-4272-9411-0e3ebd1834d4,2018-11-30T09:42:52,On Hold,7
2018-11-30T15:12:43.494+06:30,2018-11-30T15:12:50.295+06:30,,,,,,,,,,,,,,,,NA,,,,,,,,,,,,,,,,,,,,,,,,,,,white,,,,,,,,,,,,,,,,,,,,,,,,,,,,,,,,,,,,,,,,,,,,,,,,18692861,a9d53223-3885-48f8-a47a-e6cb215daff1,2018-11-30T09:42:58,On Hold,8
2018-11-23T23:22:51.797+06:30,2018-11-23T23:25:48.636+06:30,,,,,,,,,"Lok Aangan, Near Shastri Nagar, Mulund Colony Mulund(W)",1993-01-01,,,24,4,4,50,Yet to begin,,No,,,,,,Yes,,,,,,,,,,,,,,Harsh Lokwani,,,,white,No,No,,Yes,,,,,,,,,,,,,,,,,,,,,,,,,a common pit in garden space for composting composting to be managed by-as group of CHS Property-tax concession for expenses in composting,1,0,0,1,0,1,,,,,,,,,,,,,18324914,8d7638e9-5134-4280-abc7-773403f5b9d2,2018-11-23T17:55:55,Not Approved,9
2018-11-23T23:25:48.908+06:30,2018-11-23T23:31:06.904+06:30,,,,,,,,,Shastri Nagar,1993-01-01,IMG_20181112_114415562-23_30_9.jpg,,,,,NA,,,,,,,,,,,,,,,,,,,,,,,Nikhil,,,,white,,,,,,,,,,,,,,,,,,,,,,,,,,,,,,,,,,,,,,,,,,,,,,,,18325307,8995b3c9-115f-4ba7-89d7-248ecf542973,2018-11-23T18:01:17,On Hold,10
2018-12-04T11:03:24.120+06:30,2018-12-04T11:03:35.403+06:30,,,,,,,,,,,,,,,,NA,,,,,,,,,,,,,,,,,,,,,,,,,,,white,,,,,,,,,,,,,,,,,,,,,,,,,,,,,,,,,,,,,,,,,,,,,,,,18878632,afc6f264-d0fd-4f74-b515-ae4054368946,2018-12-04T05:33:44,,11
2018-12-04T11:03:18.399+06:30,2018-12-04T11:03:22.661+06:30,,,,,,,,,,,,,,,,NA,,,,,,,,,,,,,,,,,,,,,,,,,,,white,,,,,,,,,,,,,,,,,,,,,,,,,,,,,,,,,,,,,,,,,,,,,,,,18878620,32efca72-f048-4671-80a6-d082a53ae82d,2018-12-04T05:33:26,,12
2018-12-04T11:03:12.329+06:30,2018-12-04T11:03:17.189+06:30,,,,,,,,,,,,,,,,NA,,,,,,,,,,,,,,,,,,,,,,,,,,,white,,,,,,,,,,,,,,,,,,,,,,,,,,,,,,,,,,,,,,,,,,,,,,,,18878619,f3c9396c-cc5a-4195-9f4b-362f9ca1ff7f,2018-12-04T05:33:25,,13
2018-12-04T11:02:56.440+06:30,2018-12-04T11:03:11.408+06:30,,,,,,,,,,,,,,,,NA,,,,,,,,,,,,,,,,,,,,,,,,,,,white,,,,,,,,,,,,,,,,,,,,,,,,,,,,,,,,,,,,,,,,,,,,,,,,18878615,6f77daf8-e3c1-419f-be72-225d14a74681,2018-12-04T05:33:17,,14
2018-12-04T11:02:42.636+06:30,2018-12-04T11:02:55.802+06:30,,,,,,,,,,,,,,,,NA,,,,,,,,,,,,,,,,,,,,,,,,,,,white,,,,,,,,,,,,,,,,,,,,,,,,,,,,,,,,,,,,,,,,,,,,,,,,18878608,4f13f80f-3680-44ab-b364-2a597d954378,2018-12-04T05:33:03,,15
2018-12-03T12:19:50.615+06:30,2018-12-03T12:19:54.652+06:30,,,,,,,,,,,,,,,,NA,,,,,,,,,,,,,,,,,,,,,,,,,,,white,,,,,,,,,,,,,,,,,,,,,,,,,,,,,,,,,,,,,,,,,,,,,,,,18877928,429f8031-8689-44e3-82fb-a9b0fc9ad79a,2018-12-04T05:01:04,,16
2018-12-03T12:19:44.420+06:30,2018-12-03T12:19:49.960+06:30,,,,,,,,,,,,,,,,NA,,,,,,,,,,,,,,,,,,,,,,,,,,,white,,,,,,,,,,,,,,,,,,,,,,,,,,,,,,,,,,,,,,,,,,,,,,,,18877927,654a3909-53b9-4562-895c-2041e04031d7,2018-12-04T05:01:03,,17
2018-11-30T13:16:18.163+06:30,2018-11-30T13:18:15.960+06:30,,Dhiraj,Panchvati,19.114884 72.903762 0 31.166000366210938,19.114884,72.903762,0,31.1660003662,Panchvati,2000-11-01,IMG_20181112_114415562-13_17_56.jpg,,40,50,4,100,Before BMC mandate (December 2017),,Yes,Aerobic,,,,,,,,,,,,,,,,,,,,,,,white,,,,,,,,,,,,,,,,,,,,,,,,,,,,,,,,,,,,,,,,,,,,,,,,18685401,ec8226ee-c7f8-41f7-95f1-a14e8be03366,2018-11-30T07:49:04,On Hold,18
2018-11-30T13:45:49.897+06:30,2018-11-30T15:29:12.676+06:30,,Dhiraj jumare,Panchvati A Wing CHS LTD.,19.115863 72.904048 -26.100000381469727 100,19.115863,72.904048,-26.1000003815,100,"Panchshrishti complex ,  behind s.m. shetty school ,  chandivali ,  mumbai . 400072",2006-07-18,,,87,,,260,Yet to begin,,No,,,,,Lack of space,Yes,No,No,Yes,No,No,No,No,No,Yes,Yes,,No,,,,,,green,Yes,Yes,,Yes,35,,,,,,,,,,,No,,Sold out by house keeping staff,No,,,,,,,,,,a common pit in garden space for composting conveyance of waste daily from CHS to the pit composting to be managed by-as group of CHS,1,1,0,1,,,,,,,,,,,,,,,18693571,04b4b4c1-ea51-4a69-94f2-2afc745e97ea,2018-11-30T09:59:21,Approved,19
2018-11-30T16:01:03.791+06:30,2018-11-30T16:01:15.673+06:30,,abxcccc,,,,,,,,,,,,,,NA,,,,,,,,,,,,,,,,,,,,,,,,,,,white,,,,,,,,,,,,,,,,,,,,,,,,,,,,,,,,,,,,,,,,,,,,,,,,18694405,d3206b55-741f-4cd6-bdfb-26ff4d6c0f6d,2018-11-30T10:31:22,On Hold,20
2018-12-03T10:31:38.325+06:30,2018-12-03T10:36:50.906+06:30,,R.G.Dhotre,Rayani house,,,,,,Mt.mary rd,,,,7,,,28,,,Yes,,1,,,,,,,,,,,,,,,,,,,,,,green,Yes,,,,,,,,,,,,,,,Yes,,BMC tempo,Yes,,,,,,,,,,composting to be managed by -CHS individually,0,0,1,0,0,0,,,,,,,,,,,,,18816906,cfad4919-5111-4c32-bd72-00a98f46cbf7,2018-12-03T05:07:01,,21
2018-12-03T11:13:19.111+06:30,2018-12-03T11:20:05.034+06:30,,Nazma sheikh,Yuwan Apt,19.055285 72.83595 -2.5 12.5,19.055285,72.83595,-2.5,12.5,Mt.mary rd,1971-12-03,,,136,,,544,,,Yes,Aerobic,,1,,,,,,,,,,,,,,,Yes,,Shri Mukti,,,,green,Yes,No,,No,,,,,,,,,,,,No,,,No,,,,,,,,,,,,,,,,,,,,,,,,,,,,,18817923,1b3047d1-9bd5-4519-bfc2-7ae0d0b91b26,2018-12-03T06:11:28,,22
2018-12-03T11:25:21.792+06:30,2018-12-03T11:28:29.762+06:30,,Ashok pandey,Rayani house,19.051332 72.822842 0 16.399999618530273,19.051332,72.822842,0,16.3999996185,Mt.mary rd,,,,7,,,NA,,,No,,,,,,,,,,,,,,,,,,,,,,,,green,Yes,No,,No,,,,,,,,,,,,,,,No,,,,,,,,,,composting to be managed by -CHS individually,0,0,1,0,0,0,,,,,,,,,,,,,18817924,6c22024e-cd2d-4a51-bbc5-a40f2e8cc03c,2018-12-03T06:11:29,,23
2018-12-03T11:28:30.519+06:30,2018-12-03T11:33:19.611+06:30,,Manoj joshi,Vrindavan,19.050758 72.822826 0 29.739999771118164,19.050758,72.822826,0,29.7399997711,Mt Mary rd,,,,28,,,112,,,No,,,,,,,,,,,,,,,,,,No,,,,,,green,Yes,No,,,,,,,,,,,,,,No,,BMC tempo,No,,,,,,,,,,composting to be managed by -CHS individually,0,0,1,0,0,0,,,,,,,,,,,,,18817925,c2aba77e-d8ea-45f5-8553-454c7ceeef53,2018-12-03T06:11:30,,24
2018-12-03T11:33:20.728+06:30,2018-12-03T11:36:48.230+06:30,,Geeta chandani,Vaikunth,19.05053 72.822791 0 23.402000427246094,19.05053,72.822791,0,23.4020004272,Mt.mary rd,,,,28,,,112,,,Yes,Aerobic,5,,,,,,,,,,,,,,,,No,,,,,,green,Yes,No,,,,,,,,,,,,,,No,,BMC tempo,No,,,,,,,,,,composting to be managed by -CHS individually,0,0,1,0,0,0,,,,,,,,,,,,,18817926,8f895b76-ceaa-4dc4-b18c-bbde820aa591,2018-12-03T06:11:30,,25
2018-12-03T11:40:56.575+06:30,2018-12-03T11:43:45.806+06:30,,Manoj,Le papillon,19.04855 72.82263 0 29.687999725341797,19.04855,72.82263,0,29.6879997253,Mt.mary rd,,,,30,,,120,,,Yes,Aerobic,1,,,,,,,,,,,,,,,,No,,,,,,green,Yes,No,,No,,,,,,,,,,,,No,,BMC tempo,No,,,,,,,,,,composting to be managed by -CHS individually,0,0,1,0,0,0,,,,,,,,,,,,,18817959,44ef632b-ce53-46df-a7f3-c357b32458d3,2018-12-03T06:13:54,,26
2018-12-03T11:44:34.353+06:30,2018-12-03T11:48:10.145+06:30,,Mr.k.s.nair,Kanti apt,19.048513 72.822702 0 35.972999572753906,19.048513,72.822702,0,35.9729995728,Mt.mary rd,1978-12-03,,,183,,,732,,,No,,,,,,,,,,,,,,,,,,,,,,,,green,Yes,No,,,,,,,,,,,,,,,,BMC tempo,No,,,,,,,,,,composting to be managed by-as group of CHS,0,0,0,1,0,0,,,,,,,,,,,,,18818017,782b2ffa-e12a-454e-8624-b85d60dfe940,2018-12-03T06:18:19,,27
2018-12-03T11:50:45.773+06:30,2018-12-03T11:56:07.264+06:30,,Pankaj Vora,Raheja sunkist,19.048327 72.822529 0 30.131999969482422,19.048327,72.822529,0,30.1319999695,Mt.mary rd,,,,31,,,124,,,No,,,,,,,,,,,,,,,,,,,,,,,,green,Yes,No,,,,,,,,,,,,,,No,,BMC tempo,No,,,,,,,,,,composting to be managed by -CHS individually,0,0,1,0,0,0,,,,,,,,,,,,,18818420,8d7b3a52-9fe6-433f-9c1a-f35633246194,2018-12-03T06:26:15,,28
2018-12-03T12:01:57.599+06:30,2018-12-03T12:03:41.736+06:30,,Gopal,Bindiachal,19.048814 72.822556 0 29.014999389648438,19.048814,72.822556,0,29.0149993896,Mt.mary rd,,,,52,,,204,,,No,,,,,,,,,,,,,,,,,,,,,,,,green,Yes,,,,,,,,,,,,,,,,,BMC tempo,,,,,,,,,,,composting to be managed by -CHS individually,0,0,1,0,0,0,,,,,,,,,,,,,18818646,27d034f5-906b-4be1-9ea4-e703c1ca57e5,2018-12-03T06:33:50,,29
2018-12-03T12:06:12.615+06:30,2018-12-03T12:10:33.700+06:30,,Vinayak shinde,Belmoral hall,19.050024 72.822735 -25.5 30.17099952697754,19.050024,72.822735,-25.5,30.170999527,Mt.mary rd,,,,43,,,172,,,No,,,,,,,,,,,,,,,,,,,,,,,,green,Yes,No,,No,,,,,,,,,,,,,,BMC tempo,No,,,,,,,,,,composting to be managed by -CHS individually,0,0,1,0,0,0,,,,,,,,,,,,,18819026,46e40f74-1204-4e39-a4e9-ba267b299e9a,2018-12-03T06:48:37,,30
2018-12-03T12:10:34.419+06:30,2018-12-03T12:10:56.109+06:30,,,,,,,,,,,,,,,,NA,,,,,,,,,,,,,,,,,,,,,,,,,,,white,,,,,,,,,,,,,,,,,,,,,,,,,,,,,,,,,,,,,,,,,,,,,,,,18819027,84f4a50b-7bc5-4bfc-bf57-3bf7ae1d3649,2018-12-03T06:48:38,,31
2018-12-03T12:18:06.347+06:30,2018-12-03T12:20:29.069+06:30,,,Benliz,19.050703 72.824526 0 29.90399932861328,19.050703,72.824526,0,29.9039993286,Mt.mary rd,,,,14,,,56,,,No,,,,,,,,,,,,,,,,,,,,,,,,green,Yes,No,,No,,,,,,,,,,,,,,BMC tempo,No,,,,,,,,,,composting to be managed by -CHS individually,0,0,1,0,0,0,,,,,,,,,,,,,18819093,ca02aeda-f317-49e7-bb5a-264b91a11fc0,2018-12-03T06:50:37,,32
2018-12-03T12:20:29.745+06:30,2018-12-03T12:22:07.532+06:30,,,Lancelot house,19.050863 72.82453 0 27.768999099731445,19.050863,72.82453,0,27.7689990997,Peter Dias rd,,,,10,,,40,,,,,,,,,,,,,,,,,,,,,,,,,,,green,Yes,No,,,,,,,,,,,,,,,,BMC tempo,No,,,,,,,,,,composting to be managed by -CHS individually,0,0,1,0,0,0,,,,,,,,,,,,,18819285,99cc3639-287b-4ad4-ba43-d04d690223e3,2018-12-03T06:52:16,,33
2018-12-03T12:22:08.523+06:30,2018-12-03T12:24:03.899+06:30,,,Orchid palace,19.050753 72.824444 0 30.304000854492188,19.050753,72.824444,0,30.3040008545,Pt.dias rd,,,,14,,,56,,,No,,,,,,,,,,,,,,,,,,,,,,,,green,Yes,No,,No,,,,,,,,,,,,,,BMC tempo,No,,,,,,,,,,composting to be managed by -CHS individually,0,0,1,0,0,0,,,,,,,,,,,,,18819356,a260438a-e46a-4938-8ce5-c157a8a9e57b,2018-12-03T06:54:13,,34
2018-12-03T12:07:16.679+06:30,2018-12-03T12:19:43.646+06:30,,Deepali Sarode,Shwetali CHS,18.941218 72.833043 0 72.9000015258789,18.941218,72.833043,0,72.9000015259,,,IMG_20181119_153708-12_9_48.jpg,,20,,,80,Yet to begin,,No,,,,,Municipal vehicle facility available,,,,Yes,,,,,,,,,No,,,,,,white,No,No,,No,,,,,,,,,,,,No,,Municipal vehicle,No,,,,,,,,,,composting to be managed by-as group of CHS,0,0,0,1,0,0,,,,,,,,,,,,,18877926,4cbfd5be-e3ff-4ae7-abb8-e930a7f24a7c,2018-12-04T05:01:03,,35
2018-12-08T10:07:25.655+06:30,2018-12-08T10:12:34.869+06:30,,,Neelam,19.05163 72.823429 -104 32.928001403808594,19.05163,72.823429,-104,32.9280014038,Mt.Mary rd,,1544244011283681152096-10_10_28.jpg,,28,,,80,,,No,,,,,,,,,,,,,,,,,,,,,,,,green,Yes,,,,,,,,,,,,,,,,,Bmc,No,,,,,,,,,,,,,,,,,,,,,,,,,,,,,19171611,3b6b8dd8-2449-4fe4-8b31-dce6729a83b2,2018-12-08T04:46:43,,36
2018-12-08T10:03:04.384+06:30,2018-12-08T10:07:23.441+06:30,,,St.Stephen's Church,19.05163 72.823429 -104 32.928001403808594,19.05163,72.823429,-104,32.9280014038,Mt.Mary rd,,1544243695584-504264886-10_5_12.jpg,,,,1,6,,,No,,,,,,,,,,,,,,,,,,,,,,,,green,Yes,,,,,,,,,,,,,,,,,Bmc tempo,,,,,,,,,,,,,,,,,,,,,,,,,,,,,,19171609,70f93018-3f64-4c9f-a6f8-7abee14fbee4,2018-12-08T04:46:33,,37
2018-12-08T09:54:19.069+06:30,2018-12-08T10:03:03.018+06:30,,Yashodhara roy,The roys,19.05163 72.823429 -104 32.928001403808594,19.05163,72.823429,-104,32.9280014038,Mt.Mary rd,,15442435125131743293092-10_2_3.jpg,,,,1,1,,,,,,,,,,,,,,,,,,,,,,,,,,,green,Yes,,,,,,,,,,,,,,,,,Bmc tempo,No,,,,,,,,,,,,,,,,,,,,,,,,,,,,,19171340,38176a6b-5d6e-4626-a0be-cb7f30e484a1,2018-12-08T04:33:20,,38
2018-12-08T09:42:51.579+06:30,2018-12-08T09:48:55.998+06:30,,Amshid,Mr.unique,19.05163 72.823429 -104 32.928001403808594,19.05163,72.823429,-104,32.9280014038,Mt.Mary,,1544242641710-1091439597-9_47_30.jpg,,14,,,42,,,No,,,,,,Yes,,,,,,,,,,,,,,,,,,green,Yes,,,,,,,,,,,,,,,,,Bmc tempo,,,,,,,,,,,,,,,,,,,,,,,,,,,,,,19171157,afe70125-4b48-4f95-a320-b26e253c6c32,2018-12-08T04:23:39,,39
2018-12-08T09:50:25.963+06:30,2018-12-08T09:54:17.811+06:30,,Ramesh,Sterling diamond,19.05163 72.823429 -104 32.928001403808594,19.05163,72.823429,-104,32.9280014038,Mt.Mary rd,,1544242916471-1000711164-9_52_12.jpg,,28,,,70,,,No,,,,,,,,,,,,,,,,,,,,,,,,green,Yes,,,,,,,,,,,,,,,,,Bmc tempo,No,,,,,,,,,,,,,,,,,,,,,,,,,,,,,19171164,07126626-a8a2-43dc-81fa-83cd3a4ea6ab,2018-12-08T04:24:32,,40
2018-12-08T09:24:47.200+06:30,2018-12-08T09:31:59.825+06:30,,Prakash,Island heights,19.05163 72.823429 -104 32.928001403808594,19.05163,72.823429,-104,32.9280014038,My.Mary rd,,1544241614973527120758-9_30_40.jpg,,14,,,40,,,No,,,,,,,,,,,,,,,,,,,,,,,,green,Yes,,,,,,,,,,,,,,,,,Bmc tempo,No,,,,,,,,,,,,,,,,,,,,,,,,,,,,,19171154,ff67d470-8faf-495a-97c1-800463d0d019,2018-12-08T04:23:15,,41
2018-12-08T09:32:05.492+06:30,2018-12-08T09:37:28.989+06:30,,Amit,Silver cascade,19.05163 72.823429 -104 32.928001403808594,19.05163,72.823429,-104,32.9280014038,Mt.Mary rd,,,,48,,,105,,,No,,,,,,,,,,,,,,Yes,,,,No,,,,,,green,Yes,,,,,,,,,,,,,,,,,Bmc tempo,,,,,,,,,,,,,,,,,,,,,,,,,,,,,,19171155,8a431610-6584-4ba6-8016-9a004bf3be83,2018-12-08T04:23:16,,42
2018-12-08T09:13:39.266+06:30,2018-12-08T09:19:07.524+06:30,,Premchand,Ebrahim manzil,19.05163 72.823429 -104 32.928001403808594,19.05163,72.823429,-104,32.9280014038,My.Mary rd,,1544240824905-402057425-9_17_17.jpg,,,,1,2,,,No,,,,,,,,,,,,Yes,,,,,,,,,,,,green,Yes,,,,,,,,,,,,,,,,,Bmc tempo,,,,,,,,,,,,,,,,,,,,,,,,,,,,,,19171150,f5101c67-7d7d-4a26-b7e4-2a67a21401ed,2018-12-08T04:22:31,,43
2018-12-08T09:19:38.334+06:30,2018-12-08T09:24:42.049+06:30,,rane,Captain villa,19.05163 72.823429 -104 32.928001403808594,19.05163,72.823429,-104,32.9280014038,My.Mary rd,,1544241127966604784347-9_22_30.jpg,,29,,,70,,,No,,,,,,,,,,,,,,,,,,,,,,,,green,Yes,,,,,,,,,,,,,,,,,Bmc tempo,,,,,,,,,,,,,,,,,,,,,,,,,,,,,,19171152,a366f85d-46e7-42f6-81b8-f8f82e732a4b,2018-12-08T04:22:56,,44
2018-12-08T09:04:17.206+06:30,2018-12-08T09:13:35.707+06:30,,Kamat,Florida apt,19.05163 72.823429 -104 32.928001403808594,19.05163,72.823429,-104,32.9280014038,Mr.Mary rd,,15442403468141126136685-9_9_21.jpg,,44,,,125,,,Yes,Aerobic,1,,,,,,,,,,,,,,,,,,,,,,green,Yes,,,,,,,,,,,,,,,,,Bmc tempo,,,,,,,,,,,,,,,,,,,,,,,,,,,,,,19171146,55c1ce09-bb78-4aa9-8598-f198e16e83b6,2018-12-08T04:22:18,,45
2018-12-08T08:52:43.420+06:30,2018-12-08T09:01:43.967+06:30,,,Rang Mahal,19.05163 72.823429 -104 32.928001403808594,19.05163,72.823429,-104,32.9280014038,My.mary,,1544239577256-1339766611-8_56_28.jpg,,14,,,42,,,No,,,,,,,,,,,,,,,,,,,,,,,,green,Yes,,,,,,,,,,,,,,,,,Bmc tempo,No,,,,,,,,,,,,,,,,,,,,,,,,,,,,,19171144,281699a1-411a-4dad-9370-1bdccc1791b4,2018-12-08T04:21:52,,46
2018-12-08T09:01:46.603+06:30,2018-12-08T09:04:14.254+06:30,,Indersingh chauhan,Arjuna,19.05163 72.823429 -104 32.928001403808594,19.05163,72.823429,-104,32.9280014038,Mr.Mary rd,,,,10,,,30,,,No,,,,,,,,,,,,,,,,,,No,,,,,,green,Yes,,,,,,,,,,,,,,,,,Bmc Tempo,No,,,,,,,,,,,,,,,,,,,,,,,,,,,,,19171145,0fcf5d1a-e887-4e65-9c9a-377cd46a3e72,2018-12-08T04:21:54,,47
2018-12-08T08:46:55.528+06:30,2018-12-08T08:52:41.240+06:30,,Lankesh patil,Deep bella,19.05163 72.823429 -104 32.928001403808594,19.05163,72.823429,-104,32.9280014038,My.Mary rd,,1544239128645603464813-8_49_8.jpg,,28,,,64,,,No,,,,,,,,,,,,,,,,,,No,,,,,,green,Yes,,,,,,,,,,,,,,,No,,Bmc Tempo,No,,,,,,,,,,,,,,,,,,,,,,,,,,,,,19171142,dc5c415b-b78b-4308-bef8-6f88dda2f2df,2018-12-08T04:21:33,,48
2018-12-09T08:45:57.467+06:30,2018-12-09T08:51:10.063+06:30,,Mona parekh,Asit apt,19.045828 72.822039 -18.799999237060547 32.25600051879883,19.045828,72.822039,-18.7999992371,32.2560005188,Kane rd,,15443254915782143830655-8_48_33.jpg,,22,,,79,,,No,,,,,,Yes,,,,,,,,,,,,,,,,,,green,Yes,,,,,,,,,,,,,,,,,BMC tempo,No,,,,,,,,,,,,,,,,,,,,,,,,,,,,,19214547,56fcfe45-7254-4436-9ca2-852cab43d230,2018-12-09T03:21:27,,49
2018-12-09T08:51:10.877+06:30,2018-12-09T08:57:44.545+06:30,,Atin,Trishul,19.045827 72.82204 -19 26.115999221801758,19.045827,72.82204,-19,26.1159992218,Kane rd,,1544325887504-510410868-8_55_0.jpg,,20,,,70,,,Yes,Aerobic,,,,,,,,,,,,,,,,,Yes,,Stree Mukti sangatna,,,,green,Yes,,,,,,,,,,,,,,,,,,No,,,,,,,,,,,,,,,,,,,,,,,,,,,,,19214593,1f57e159-8ca7-4c22-8aa3-191e9f743567,2018-12-09T03:28:04,,50
2018-12-09T08:58:31.652+06:30,2018-12-09T09:01:31.931+06:30,,,Darus Salaam A,19.04582 72.821731 0 30.363000869750977,19.04582,72.821731,0,30.3630008698,Kane Rd,,1544326198965-1206698085-9_0_12.jpg,,,,3,10,,,Yes,Aerobic,,,,,,,,,,,,,,,,,Yes,,,,,,green,Yes,,,,,,,,,,,,,,,,,Bmc tempo,,,,,,,,,,,,,,,,,,,,,,,,,,,,,,19214642,16f29e80-e513-49c0-a647-c42ad6a8b2fe,2018-12-09T03:31:49,,51
2018-12-09T09:01:32.725+06:30,2018-12-09T09:06:50.159+06:30,,Fitzquerald fernandes,Deocesan pastoral centre,19.045775 72.821583 0 27.993000030517578,19.045775,72.821583,0,27.9930000305,Kane Rd,,1544326487241946317416-9_4_59.jpg,,,,1,8,,,No,,,,,,,,,,,Yes,,,,,,,No,,,,,,green,Yes,,,,,,,,,,,,,,,,,BMC tempo,,,,,,,,,,,,,,,,,,,,,,,,,,,,,,19214690,41114528-96af-417f-8a07-ef90bae56031,2018-12-09T03:37:04,,52
2018-12-09T09:06:51.630+06:30,2018-12-09T09:15:39.996+06:30,,Gupta,Bandstand b building,19.045926 72.821828 0 30.893999099731445,19.045926,72.821828,0,30.8939990997,Kane Rd,,15443268952401397127252-9_11_48.jpg,,24,,,85,,,Yes,Aerobic,,,,,,,,,,,,,,,,,Yes,,Stree Mukti,,,,green,Yes,,,,,,,,,,,,,,,,,Bmc tempo,,,,,,,,,,,,,,,,,,,,,,,,,,,,,,19214798,414d8b6f-e459-4c97-b452-36145aeff9ca,2018-12-09T03:45:56,,53
2018-12-09T09:19:46.692+06:30,2018-12-09T09:22:27.941+06:30,,Gupta,Bandstand B,19.045869 72.821121 0 26.344999313354492,19.045869,72.821121,0,26.3449993134,Kane rd,,1544327419506-1824547872-9_20_28.jpg,,48,,,175,,,Yes,Aerobic,,,,,,,,,,,,,,,,,Yes,,Stree Mukti,,,,green,Yes,,,,,,,,,,,,,,,,,BMC tempo,,,,,,,,,,,,,,,,,,,,,,,,,,,,,,19214856,5bfa9b71-9a12-49db-859d-fc745191d457,2018-12-09T03:52:47,,54
2018-12-09T09:22:28.815+06:30,2018-12-09T09:26:07.963+06:30,,Father lelse,Retreat house,19.045862 72.821142 -32.70000076293945 24.757999420166016,19.045862,72.821142,-32.7000007629,24.7579994202,Kane Rd,,15443276057321024129344-9_23_35.jpg,,,,1,3,,,Yes,Aerobic,,,,,,,,,,,,,,,,,No,,,,,,green,Yes,,,,,,,,,,,,,,,,,BMC tempo,,,,,,,,,,,,,,,,,,,,,,,,,,,,,,19214907,514c6f47-8f52-4950-9045-9c7f13687599,2018-12-09T03:56:34,,55
2018-12-09T09:26:09.100+06:30,2018-12-09T09:28:32.683+06:30,,Akbar,Villa vazir,19.045886 72.820499 0 26.8799991607666,19.045886,72.820499,0,26.8799991608,Kane rd,,1544327801025-566532928-9_26_50.jpg,,,,1,3,,,No,,,,,,,,,,,,,,,,,,,,,,,,green,Yes,,,,,,,,,,,,,,,,,BMC tempo,,,,,,,,,,,,,,,,,,,,,,,,,,,,,,19214953,e3236f93-182e-40c7-97c2-a81b14130890,2018-12-09T03:58:56,,56
2018-12-09T09:28:34.315+06:30,2018-12-09T09:35:45.736+06:30,,Geneson salvomen,Sunita,19.045914 72.820387 -44.70000076293945 24.700000762939453,19.045914,72.820387,-44.7000007629,24.7000007629,Kane Rd,,1544328011887-1869575812-9_30_18.jpg,,14,,,55,,,,,,,,,,,,,,,,,,,,,,,,,,,green,Yes,,,,,,,,,,,,,,,,,Bmc tempo,,,,,,,,,,,,,,,,,,,,,,,,,,,,,,19215106,dbe0077d-429f-437b-80be-9cfe0f1bd930,2018-12-09T04:06:03,,57
2018-12-09T09:35:47.898+06:30,2018-12-09T09:38:26.996+06:30,,Prakash shelar,Mayfair buliding,19.045897 72.820425 -44.70000076293945 27.283000946044922,19.045897,72.820425,-44.7000007629,27.283000946,Kane Rd,,15443283721451908765407-9_36_23.jpg,,14,,,53,,,No,,,,,,,,,,,,Yes,,,,,,,,,,,,green,Yes,,,,,,,,,,,,,,,,,BMC tempo,,,,,,,,,,,,,,,,,,,,,,,,,,,,,,19215131,bd69476e-9b1f-4d87-bbd6-a7ec6b61494f,2018-12-09T04:08:48,,58
2018-12-09T09:38:29.503+06:30,2018-12-09T09:48:02.478+06:30,,Pramod,Sarkar heritage,19.045963 72.820098 0 26.711000442504883,19.045963,72.820098,0,26.7110004425,Kane Rd,,1544328951630-1216152456-9_46_1.jpg,,9,,,25,,,No,,,,,,,,,,Yes,,,,,,,,,,,,,,green,Yes,,,,,,,,,,,,,,,,,BMC tempo,,,,,,,,,,,,,,,,,,,,,,,,,,,,,,19215340,fdec559c-9dd9-49c1-bf5e-8e1b387b8f98,2018-12-09T04:18:22,,59
2018-12-09T09:51:26.672+06:30,2018-12-09T09:53:32.377+06:30,,M.t.soni,Berket,19.046478 72.819708 -56.400001525878906 32.73099899291992,19.046478,72.819708,-56.4000015259,32.7309989929,H.k.bhabha,,15443293089642082047997-9_52_8.jpg,,,,1,3,,,,,,,,,,,,,,,,,,,,,,,,,,,green,Yes,,,,,,,,,,,,,,,,,Bmc tempo,,,,,,,,,,,,,,,,,,,,,,,,,,,,,,19215369,8a4686cc-bb67-4d1a-879a-1a68f8f35416,2018-12-09T04:23:55,,60
2018-12-09T09:53:33.223+06:30,2018-12-09T09:56:34.844+06:30,,,Identity,19.046476 72.819746 -56.20000076293945 31.13599967956543,19.046476,72.819746,-56.2000007629,31.1359996796,Kane Rd,,1544329501748-590845250-9_55_8.jpg,,11,,,10,,,No,,,,,,,,,,,,,,,,,,,,,,,,green,Yes,,,,,,,,,,,,,,,,,,,,,,,,,,,,,,,,,,,,,,,,,,,,,,,19215389,8d413938-574b-439d-86de-e85776c335f2,2018-12-09T04:26:55,,61
2018-12-09T09:56:36.015+06:30,2018-12-09T10:01:49.368+06:30,,Joseph,Mon repos,19.045952 72.820057 0 27.448999404907227,19.045952,72.820057,0,27.4489994049,H.K.Bhabha rd,,15443297546221985014768-9_59_20.jpg,,21,,,45,,,No,,,,,,,,,,,,,,,,,,,,,,,,green,Yes,,,,,,,,,,,,,,,,,BMC tempo,,,,,,,,,,,,,,,,,,,,,,,,,,,,,,19215418,f1560249-a47f-4a21-86e6-e5de4b1f5b44,2018-12-09T04:32:48,,62
2018-12-09T10:01:50.920+06:30,2018-12-09T10:10:15.376+06:30,,Shahrukh khan,Mannat bungalow,19.046648 72.819892 -57.29999923706055 26.474000930786133,19.046648,72.819892,-57.2999992371,26.4740009308,H.K.bhabha,,1544330079378-1270010664-10_4_47.jpg,,,,1,6,,,,,,,,,,,,,,,,,,,,,,,,,,,green,Yes,,,,,,,,,,,,,,,,,BMC tempo,,,,,,,,,,,,,,,,,,,,,,,,,,,,,,19215601,f825651f-8465-407a-9db7-23ca9eb9b04c,2018-12-09T04:51:24,,63
2018-12-09T10:20:29.706+06:30,2018-12-09T10:22:51.739+06:30,,Nityanand,Sea queen,19.047637 72.820473 0 33.52000045776367,19.047637,72.820473,0,33.5200004578,H.K.Bhabha,,1544331038894-818538446-10_20_48.jpg,,10,,,30,,,No,,,,,,,,,,,,,,,,,,,,,,,,white,,,,,,,,,,,,,,,,,,BMC tempo,No,,,,,,,,,,,,,,,,,,,,,,,,,,,,,19215704,86affd83-d5a9-419b-ae80-9352a3978595,2018-12-09T04:53:23,,64
2018-12-09T10:22:52.525+06:30,2018-12-09T10:27:59.843+06:30,,,Sorabji byramji bhabha,19.047562 72.820369 -54.599998474121094 39.2869987487793,19.047562,72.820369,-54.5999984741,39.2869987488,,,15443312412901882912218-10_24_12.jpg,,,,100,,,,No,,,,,,,,,,,,,,,,,,,,,,,,green,Yes,,,,,,,,,,,,,,,,,BMC tempo,No,,,,,,,,,,,,,,,,,,,,,,,,,,,,,19215789,2857f14e-408c-486f-a733-84c1a1d63506,2018-12-09T04:58:30,,65
2018-12-09T10:28:00.985+06:30,2018-12-09T10:36:47.085+06:30,,Mustafa,Firdosh manzil,19.047418 72.820357 0 29.18000030517578,19.047418,72.820357,0,29.1800003052,H.K.Bhabha,,15443318083321248623590-10_33_34.jpg,,18,,,60,,,No,,,,,,,,,,,,,,,,,,,,,,,,green,Yes,,,,,,,,,,,,,,,,,Bmc tempo,,,,,,,,,,,,,,,,,,,,,,,,,,,,,,19215850,5e3b9c61-34c5-4f6d-b06c-cf6531140ceb,2018-12-09T05:07:16,,66
2018-12-09T10:36:48.688+06:30,2018-12-09T10:39:53.432+06:30,,Siraj,Natalwala bungalow,19.048144 72.820813 -55.20000076293945 27.76099967956543,19.048144,72.820813,-55.2000007629,27.7609996796,H.K.Bhabha,,1544332178223-433381716-10_39_43.jpg,,,,1,6,,,No,,,,,,,,,,,,,,,,,,,,,,,,green,Yes,,,,,,,,,,,,,,,,,BMC tempo,,,,,,,,,,,,,,,,,,,,,,,,,,,,,,19215896,4ec7050e-1d8e-4db8-86f4-b67ea5620c35,2018-12-09T05:10:14,,67
2018-12-09T10:39:55.568+06:30,2018-12-09T10:42:45.448+06:30,,Mohsin,Mujassama,19.048086 72.821318 -55.20000076293945 34.2760009765625,19.048086,72.821318,-55.2000007629,34.2760009766,,,15443322262871242949286-10_40_36.jpg,,,,1,NA,,,No,,,,,,,,,,,,,,,,,,,,,,,,green,Yes,,,,,,,,,,,,,,,,,Bmc tempo,,,,,,,,,,,,,,,,,,,,,,,,,,,,,,19216016,3a280b12-3527-41a3-b4d3-ba9eaef3e43b,2018-12-09T05:13:10,,68
2018-12-09T10:42:48.038+06:30,2018-12-09T10:50:33.299+06:30,,Manoj joshi,Sea springs,19.048031 72.820976 -55.20000076293945 47.917999267578125,19.048031,72.820976,-55.2000007629,47.9179992676,H.K.bhabha,,1544332432543-1554460702-10_44_0.jpg,,24,,,NA,,,No,,,,,,,,,,,,,,,,,,,,,,,,green,Yes,,,,,,,,,,,,,,,,,Bmc tempo,No,,,,,,,,,,,,,,,,,,,,,,,,,,,,,19216087,6622ec16-ca3e-4b9b-aed0-344691f02c57,2018-12-09T05:20:53,,69
2018-12-09T10:50:36.431+06:30,2018-12-09T10:56:17.762+06:30,,Nakul salunke,Sea king,19.048301 72.820887 0 24.06800079345703,19.048301,72.820887,0,24.0680007935,H.K.bhabha,,1544332910595399535305-10_52_0.jpg,,26,,,80,,,No,,,,,,,,,,,,Yes,,,,,,,,,,,,green,Yes,,,,,,,,,,,,,,,,,BMC tempo,No,,,,,,,,,,,,,,,,,,,,,,,,,,,,,19216207,06c2c04c-6048-4bb6-b23a-41bb6241c707,2018-12-09T05:28:02,,70
2018-12-09T10:56:21.250+06:30,2018-12-09T10:58:56.205+06:30,,,West wind,19.048509 72.82126 0 28.865999221801758,19.048509,72.82126,0,28.8659992218,H.K.Bhabha,,1544333222094-1400220948-10_57_9.jpg,,14,,,56,,,No,,,,,,,,,,,,,,,,,,,,,,,,green,Yes,,,,,,,,,,,,,,,,,BMC tempo,No,,,,,,,,,,,,,,,,,,,,,,,,,,,,,19216239,91d15e9d-815f-4818-8172-14144e0cd254,2018-12-09T05:32:22,,71
2018-12-09T10:59:00.316+06:30,2018-12-09T11:01:59.691+06:30,,,Sister bungalow,19.04862 72.821396 0 33.2859992980957,19.04862,72.821396,0,33.2859992981,H.k.bhabha,,1544333425472-713633328-11_0_32.jpg,,,,1,3,,,No,,,,,,,,,,,,,,,,,,,,,,,,white,,,,,,,,,,,,,,,,,,BMC tempo,,,,,,,,,,,,,,,,,,,,,,,,,,,,,,19216250,7aa0b6c8-dfc4-4a6f-95ef-46aeab48b6b7,2018-12-09T05:35:43,,72
2018-12-09T11:02:04.385+06:30,2018-12-09T11:04:01.959+06:30,,Ashok,Marine mansion,19.048917 72.821263 0 28.524999618530273,19.048917,72.821263,0,28.5249996185,H.k.bhabha,,15443335463791664821885-11_2_31.jpg,,10,,,30,,,No,,,,,,,,,,,,,,,,,,,,,,,,white,,,,,,,,,,,,,,,,,,BMC tempo,No,,,,,,,,,,,,,,,,,,,,,,,,,,,,,19216255,0c0ddea9-9ec6-4b5f-819e-2f65f094f4a1,2018-12-09T05:36:55,,73
2018-12-09T11:04:07.184+06:30,2018-12-09T11:11:31.910+06:30,,Azim premji,Wipro,19.048894 72.821338 0 28.590999603271484,19.048894,72.821338,0,28.5909996033,,,1544333982343-1356003575-11_9_55.jpg,,,,1,25,,,,,,,,,,,,,,,,,,,,,,,,,,,green,Yes,,,,,,,,,,,,,,,,,BMC tempo,No,,,,,,,,,,,,,,,,,,,,,,,,,,,,,19216302,d7107278-415c-4583-8810-2e5fc44f9aa5,2018-12-09T05:43:00,,74
2018-12-09T11:11:37.404+06:30,2018-12-09T11:15:04.641+06:30,,Manoj joshi,Ritu,19.04901 72.821243 0 28.04800033569336,19.04901,72.821243,0,28.0480003357,H.k.bhabha,,1544334163832-1955265577-11_12_47.jpg,,10,,,30,,,No,,,,,,,,,,,,,,,,,,,,,,,,green,Yes,,,,,,,,,,,,,,,,,BMC tempo,No,,,,,,,,,,,,,,,,,,,,,,,,,,,,,19216356,b4ef77d3-bd5b-447b-a1bc-39a5644e45d4,2018-12-09T05:47:27,,75
2018-12-09T11:15:11.297+06:30,2018-12-09T11:18:45.850+06:30,,Bablu patkar,Sarita a b,19.049204 72.821373 -50.599998474121094 26.297000885009766,19.049204,72.821373,-50.5999984741,26.297000885,H.k.bhabha,,1544334338879797782523-11_15_42.jpg,,26,,,80,,,No,,,,,,,,,,,,,,,,,,,,,,,,green,Yes,,,,,,,,,,,,,,,No,,,No,,,,,,,,,,,,,,,,,,,,,,,,,,,,,19216482,6eb832cc-3c73-4509-9370-b0daae883cb3,2018-12-09T05:50:19,,76
2018-12-09T11:18:53.061+06:30,2018-12-09T11:21:59.019+06:30,,,Kooka villa,19.049388 72.82147 0 27.87299919128418,19.049388,72.82147,0,27.8729991913,,,1544334610906406861629-11_20_19.jpg,,,,,NA,,,No,,,,,,,,,,,,,,,,,,,,,,,,green,Yes,,,,,,,,,,,,,,,,,BMC tempo,No,,,,,,,,,,,,,,,,,,,,,,,,,,,,,19216508,3ea8c14f-8821-4bb6-8425-02b1d56554b4,2018-12-09T05:52:59,,77
2018-12-09T11:22:06.125+06:30,2018-12-09T11:24:29.914+06:30,,Sandesh maiker,Madhusheela,19.049801 72.821532 0 26.641000747680664,19.049801,72.821532,0,26.6410007477,,,1544334746017-1749914168-11_22_33.jpg,,,,1,6,,,No,,,,,,,,,,,,,,,,,,,,,,,,green,Yes,,,,,,,,,,,,,,,,,,No,,,,,,,,,,,,,,,,,,,,,,,,,,,,,19216528,a31d9400-d2a5-480e-b7f8-544d3ea19e34,2018-12-09T05:55:02,,78
2018-12-09T11:24:38.100+06:30,2018-12-09T11:28:30.730+06:30,,Kumar Rohera,Basera bungalow,19.04989 72.821491 -57.20000076293945 65.26000213623047,19.04989,72.821491,-57.2000007629,65.2600021362,H.K.bhabha rd,,15443349157901761115019-11_25_20.jpg,,,,1,9,,,,,,,,,,,,,,,,,,,,,,,,,,,green,Yes,,,,,,,,,,,,,,,,,BMC tempo,No,,,,,,,,,,,,,,,,,,,,,,,,,,,,,19216584,738785df-b64e-408e-b9ab-28b24d839b83,2018-12-09T06:00:25,,79
2018-12-09T11:37:17.962+06:30,2018-12-09T11:39:38.747+06:30,,Mohan shetty,Sea kist,19.050341 72.821483 0 28.048999786376953,19.050341,72.821483,0,28.0489997864,H.K.bhabha,,1544335659781-875058405-11_37_44.jpg,,,,1,6,,,No,,,,,,Yes,,,,,,,,,,,,,,,,,,green,Yes,,,,,,,,,,,,,,,,,BMC tempo,No,,,,,,,,,,,,,,,,,,,,,,,,,,,,,19216754,4dec3d04-efc5-42d5-b5f3-511e9de9a450,2018-12-09T06:10:12,,80
2018-12-09T11:39:39.518+06:30,2018-12-09T11:44:20.338+06:30,,Manial,Sea glimpse,19.050106 72.821488 0 42.106998443603516,19.050106,72.821488,0,42.1069984436,H.k.bhabha,,1544335969617972668241-11_42_58.jpg,,14,,,52,,,No,,,,,,,,,,,,,,,,,,,,,,,,green,Yes,,,,,,,,,,,,,,,,,Bmc tempo,No,,,,,,,,,,,,,,,,,,,,,,,,,,,,,19216869,6f3f7a01-88d7-4e3f-bf75-6732d870c6d8,2018-12-09T06:14:44,,81
2018-12-09T11:44:21.479+06:30,2018-12-09T11:48:20.487+06:30,,Jasjeet singh,Rockdale,19.050433 72.821497 -57.20000076293945 26.083999633789062,19.050433,72.821497,-57.2000007629,26.0839996338,H.K.bhabha rd,,15443361172151377793747-11_45_23.jpg,,,,1,6,,,,,,,,,,,,,,,,,,,,,,,,,,,green,Yes,,,,,,,,,,,,,,,,,B m c tempo,No,,,,,,,,,,,,,,,,,,,,,,,,,,,,,19216928,3eb2e9f8-0b99-490b-98f8-23cb9f585ce0,2018-12-09T06:19:25,,82
2018-12-08T10:25:02.386+06:30,2018-12-08T10:27:13.312+06:30,,Mishra,Merry niketan,19.05163 72.823429 -104 32.928001403808594,19.05163,72.823429,-104,32.9280014038,Mt.Mary rd,,,,37,,,98,,,No,,,,,,,,,,,,,,,,,,,,,,,,green,Yes,,,,,,,,,,,,,,,,,Bmc tempo,No,,,,,,,,,,,,,,,,,,,,,,,,,,,,,19225084,72015c05-e3d5-4598-88fc-2a983b252333,2018-12-09T13:18:05,,83
2018-12-08T10:27:14.114+06:30,2018-12-08T10:29:28.847+06:30,,Dubey,Hill niketan,19.05163 72.823429 -104 32.928001403808594,19.05163,72.823429,-104,32.9280014038,Mt.Mary rd,,,,28,,,75,,,No,,,,,,,,,,,,,,,,,,,,,,,,green,Yes,,,,,,,,,,,,,,,,,Bmc tempo,No,,,,,,,,,,,,,,,,,,,,,,,,,,,,,19225085,37900eb5-f3e0-4635-8d01-0e1a6d94565a,2018-12-09T13:18:06,,84
2018-12-08T10:29:29.930+06:30,2018-12-08T10:32:01.405+06:30,,Mr.D souza,Mt.Mary church,19.05163 72.823429 -104 32.928001403808594,19.05163,72.823429,-104,32.9280014038,Mt.Mary rd,,,,,,1,2,,,,,,,,,,,,,,,,,,,,,,,,,,,green,Yes,,,,,,,,,,,,,,,,,Bmc tempo,No,,,,,,,,,,,,,,,,,,,,,,,,,,,,,19225086,005b21d1-dce6-479d-a686-1992fe96d2f6,2018-12-09T13:18:07,,85
2018-12-08T10:32:02.975+06:30,2018-12-08T10:35:15.766+06:30,,Sister Victoria,Mt.Mary School,19.05163 72.823429 -104 32.928001403808594,19.05163,72.823429,-104,32.9280014038,Mr.Mary rd,,,,,,1,3,,,No,,,,,,,,,,,,,,,,,,,,,,,,green,Yes,,,,,,,,,,,,,,,,,Bmc tempo,No,,,,,,,,,,,,,,,,,,,,,,,,,,,,,19225087,632e0134-1e43-488a-82e5-35700b2e2c25,2018-12-09T13:18:08,,86
2018-12-08T10:35:17.754+06:30,2018-12-08T10:37:49.201+06:30,,,Cliff tower,19.05163 72.823429 -104 32.928001403808594,19.05163,72.823429,-104,32.9280014038,Mt.Mary rd,,,,14,,,32,,,No,,,,,,,,,,,,,,,,,,,,,,,,green,Yes,,,,,,,,,,,,,,,,,Bmc tempo,No,,,,,,,,,,,,,,,,,,,,,,,,,,,,,19225088,28fc7c66-97f3-41ee-ba6e-9bd4b1648df3,2018-12-09T13:18:08,,87
2018-12-08T10:37:52.445+06:30,2018-12-08T10:40:14.124+06:30,,Sister Molly,Mary hill bldg,19.05163 72.823429 -104 32.928001403808594,19.05163,72.823429,-104,32.9280014038,Mt.Mary rd,,,,3,,,10,,,No,,,,,,,,,,,,Yes,,,,,,,,,,,,green,Yes,,,,,,,,,,,,,,,,,Bmc tempo,,,,,,,,,,,,,,,,,,,,,,,,,,,,,,19225090,ffb0fb3b-4b8e-4669-bb7d-20a346659fa3,2018-12-09T13:18:09,,88
2018-12-08T10:40:17.199+06:30,2018-12-08T10:43:44.178+06:30,,Mr rozario,Shanti avedana hospital,19.05163 72.823429 -104 32.928001403808594,19.05163,72.823429,-104,32.9280014038,My Mary rd,,,,,,,NA,,,No,,,,,,,,,,,,,,,,,,,,,,,,white,,,,,,,,,,,,,,,,,,Bmc tempo,,,,,,,,,,,,,,,,,,,,,,,,,,,,,,19225091,7d80b06c-6a58-4c5f-ae2b-bea510127b04,2018-12-09T13:18:10,,89
2018-12-08T10:43:47.572+06:30,2018-12-08T10:46:09.087+06:30,,,Asuda kutir,19.05163 72.823429 -104 32.928001403808594,19.05163,72.823429,-104,32.9280014038,Mt.Mary rd,,,,6,,,25,,,No,,,,,,,,,,,,,,,,,,No,,,,,,green,Yes,,,,,,,,,,,,,,,No,,Bmc tempo,No,,,,,,,,,,,,,,,,,,,,,,,,,,,,,19225092,169e9b75-4240-46de-bda4-94bbcf98fdc5,2018-12-09T13:18:11,,90
2018-12-08T10:46:12.894+06:30,2018-12-08T10:48:43.804+06:30,,Tilak,Dubash mansion,19.05163 72.823429 -104 32.928001403808594,19.05163,72.823429,-104,32.9280014038,Mt.Mary rd,,,,22,,,66,,,No,,,,,,,,,,,,Yes,,,,,,,,,,,,green,Yes,,,,,,,,,,,,,,,,,Bmc tempo,No,,,,,,,,,,,,,,,,,,,,,,,,,,,,,19225093,b7136ac4-3980-499e-b8d0-bc56810a477d,2018-12-09T13:18:12,,91
2018-12-08T10:48:48.072+06:30,2018-12-08T10:51:33.383+06:30,,Allabak sheikh,Sai sagar,19.05163 72.823429 -104 32.928001403808594,19.05163,72.823429,-104,32.9280014038,Mt.Mary rd,,,,4,,,15,,,No,,,,,,,,,,,,,,,,,,,,,,,,green,Yes,,,,,,,,,,,,,,,,,Bmc tempo,No,,,,,,,,,,,,,,,,,,,,,,,,,,,,,19225094,15e1b25f-1836-48f1-a872-ff1b9b9bf4b1,2018-12-09T13:18:12,,92
2018-12-10T08:23:02.631+06:30,2018-12-10T08:30:29.146+06:30,,Rij madam,Galaxy apt,19.05163 72.823429 -104 32.928001403808594,19.05163,72.823429,-104,32.9280014038,B.j.rd,,1544410435747643934578-8_24_5.jpg,,22,,,85,,,Yes,Aerobic,5,,,,,,,,,,,,,,,,No,,,,,,green,Yes,,,,,,,,,,,,,,,,,Bmc tempo,No,,,,,,,,,,,,,,,,,,,,,,,,,,,,,19241695,f649dd78-a83d-4410-88c7-c78523db1d9b,2018-12-10T03:47:12,,93
2018-12-10T08:30:30.244+06:30,2018-12-10T08:38:36.109+06:30,,Sandeep Patil,,19.05163 72.823429 -104 32.928001403808594,19.05163,72.823429,-104,32.9280014038,B.J.Rd,,15444110799821790806758-8_34_53.jpg,,34,,,105,,,No,,,,,,,,,,,,,,,,,,,,,,,,green,Yes,,,,,,,,,,,,,,,,,Bmc tempo,,,,,,,,,,,,,,,,,,,,,,,,,,,,,,19241698,aa40137e-30cc-4f84-b85c-c732cbd9e275,2018-12-10T03:47:18,,94
2018-12-10T08:38:37.381+06:30,2018-12-10T08:38:48.774+06:30,,,,,,,,,,,,,,,,NA,,,,,,,,,,,,,,,,,,,,,,,,,,,white,,,,,,,,,,,,,,,,,,,,,,,,,,,,,,,,,,,,,,,,,,,,,,,,19241699,0ec23d6b-fae2-4004-89c8-bc07abc8648c,2018-12-10T03:47:19,,95
2018-12-10T08:38:50.353+06:30,2018-12-10T08:54:31.317+06:30,,Sister cecelia,Pratnalaya,19.05163 72.823429 -104 32.928001403808594,19.05163,72.823429,-104,32.9280014038,B.J.Rd,,15444114389951914103783-8_40_49.jpg,,,,,36,,,Yes,Aerobic,,1,,,,,,,,,,,,,,,,,,,,,green,Yes,,,,,,,,,,,,,,,No,,Bmc tempo,No,,,,,,,,,,,,,,,,,,,,,,,,,,,,,19241704,903e9976-7103-4c10-9c88-0e63fc60df7d,2018-12-10T03:47:25,,96
2018-12-10T08:52:38.576+06:30,2018-12-10T09:02:04.115+06:30,,Ambu,Sea bird,19.049328 72.82529 0 613,19.049328,72.82529,0,613,B.J. Rd .,,1544412282321-678774522-8_55_0.jpg,,34,,,120,,,Yes,Aerobic,,,,,,,,,,,,,,,,,,,,,,,green,Yes,,,,,,,,,,,,,,,,,BMC tempo,No,,,,,,,,,,,,,,,,,,,,,,,,,,,,,19243567,ae37ad3b-da32-4e97-ad0e-3a496554da7b,2018-12-10T05:20:08,,97
2018-12-10T09:02:04.903+06:30,2018-12-10T09:07:06.675+06:30,,,Mudd store,19.049328 72.82529 0 613,19.049328,72.82529,0,613,B.J.rd,,15444129778031250540229-9_6_21.jpg,,,,1,NA,,,No,,,,,,,,,,,,,,,,,,,,,,,,green,Yes,,,,,,,,,,,,,,,,,BMC tempo,No,,,,,,,,,,,,,,,,,,,,,,,,,,,,,19243586,99fc7584-61fc-45ce-9316-0228b95606b1,2018-12-10T05:20:52,,98
2018-12-10T09:07:07.808+06:30,2018-12-10T09:12:01.142+06:30,,,Noor e rehmat,19.052472 72.821924 0 29.979000091552734,19.052472,72.821924,0,29.9790000916,B.J.Rd,,1544413111410-131795506-9_8_36.jpg,,28,,,88,,,No,,,,,,,,,,,,,,,,,,,,,,,,green,Yes,,,,,,,,,,,,,,,,,BMC tempo,No,,,,,,,,,,,,,,,,,,,,,,,,,,,,,19243589,779b52df-f7b8-41ea-813e-adb306425965,2018-12-10T05:21:02,,99
2018-12-10T09:12:02.789+06:30,2018-12-10T09:16:25.993+06:30,,Camilla Rodriquez,Windmere,19.052512 72.821999 0 32.31100082397461,19.052512,72.821999,0,32.311000824,B.J.rd,,1544413360060-1206698085-9_12_45.jpg,,14,,,50,,,Yes,Aerobic,4,,,,,,,,,,,,,,,,,,,,,,white,,,,,,,,,,,,,,,,,,,No,,,,,,,,,,,,,,,,,,,,,,,,,,,,,19243592,50a15c6f-cba7-401a-b693-647636b10b5e,2018-12-10T05:21:11,,100
2018-12-10T09:16:28.686+06:30,2018-12-10T09:19:14.522+06:30,,,Clergy home,19.052535 72.821974 0 27.631000518798828,19.052535,72.821974,0,27.6310005188,B.J.Rd,,1544413659681946317416-9_17_44.jpg,,,,1,29,,,No,,,,,,,,,,,,,,,,,,,,,,,,green,Yes,,,,,,,,,,,,,,,,,BMC tempo,No,,,,,,,,,,,,,,,,,,,,,,,,,,,,,19243596,06f5cb53-c406-4ff3-8f74-53ac904c2c31,2018-12-10T05:21:24,,101
2018-12-10T09:19:17.162+06:30,2018-12-10T09:22:26.076+06:30,,Karnani,Dattani palace,19.052417 72.822057 0 32.277000427246094,19.052417,72.822057,0,32.2770004272,B.J.Rd,,15444138544041397127252-9_21_3.jpg,,12,,,48,,,,,,,,,,,,,,,,,,,,,,,,,,,green,Yes,,,,,,,,,,,,,,,,,BMC tempo,No,,,,,,,,,,,,,,,,,,,,,,,,,,,,,19243615,6e05344e-39c0-4d62-9103-ea0fb7316dc7,2018-12-10T05:22:05,,102
2018-12-10T09:22:29.323+06:30,2018-12-10T09:25:40.180+06:30,,Dilvar madam,Bai shirinbai cama convalescent home,19.051261 72.821836 -58.599998474121094 100,19.051261,72.821836,-58.5999984741,100,B.J.rd,,15444140135211024129344-9_23_38.jpg,,,,1,30,,,No,,,,,,,,,,,,,,,,,,,,,,,,green,Yes,,,,,,,,,,,,,,,No,,BMC tempo,No,,,,,,,,,,,,,,,,,,,,,,,,,,,,,19243642,9c6a5153-0acd-4a89-87c4-eae97c3624f0,2018-12-10T05:22:41,,103
2018-12-10T09:25:43.901+06:30,2018-12-10T09:34:18.991+06:30,,J.p.gupta,Camp juice centre,19.051267 72.821901 -57.20000076293945 51.83700180053711,19.051267,72.821901,-57.2000007629,51.8370018005,B.j.rd.,,1544414406392-566532928-9_30_20.jpg,,,,,NA,,,No,,,,,,,,,,,,,,,,,,,,,,,,green,Yes,,,,,,,,,,,,,,,,,BMC tempo,No,,,,,,,,,,,,,,,,,,,,,,,,,,,,,19243644,65970058-d5b0-478d-a221-67d15338f331,2018-12-10T05:22:48,,104
2018-12-10T09:34:23.063+06:30,2018-12-10T09:36:27.534+06:30,,Farhan Akhtar,Vipassana,19.049336 72.82106 -55.20000076293945 24.402000427246094,19.049336,72.82106,-55.2000007629,24.4020004272,,,,,,,1,4,,,,,,,,,,,,,,,,,,,,,,,,,,,green,Yes,,,,,,,,,,,,,,,No,,,,,,,,,,,,,,,,,,,,,,,,,,,,,,,,19243645,80a1082f-8395-4e04-910f-d7e4e68e7600,2018-12-10T05:22:49,,105
2018-12-10T09:36:32.146+06:30,2018-12-10T09:40:03.279+06:30,,,Sea springs bungalow,19.048469 72.820417 -53.29999923706055 26.79400062561035,19.048469,72.820417,-53.2999992371,26.7940006256,,,1544414863111-1869575812-9_37_48.jpg,,,,1,9,,,No,,,,,,,,,,,,,,,,,,,,,,,,green,Yes,,,,,,,,,,,,,,,,,BMC tempo,,,,,,,,,,,,,,,,,,,,,,,,,,,,,,19243647,98a73c6d-ac34-4cc5-bb08-621fa6329393,2018-12-10T05:23:00,,106
2018-12-10T09:40:08.231+06:30,2018-12-10T09:44:34.115+06:30,,,Tej kunj,19.048389 72.820429 -53.29999923706055 28.43000030517578,19.048389,72.820429,-53.2999992371,28.4300003052,B.j.rd,,15444150195091908765407-9_40_24.jpg,,,,1,12,,,No,,,,,,,,,,,,,,,,,,No,,,,,,green,Yes,,,,,,,,,,,,,,,,,Bmc tempo,No,,,,,,,,,,,,,,,,,,,,,,,,,,,,,19243653,19ffa9b6-8150-443d-87e5-027d3725fa92,2018-12-10T05:23:45,,107
2018-12-10T09:44:39.758+06:30,2018-12-10T09:49:01.605+06:30,,Vasant,Jivesh terraces,19.047726 72.820024 0 31.405000686645508,19.047726,72.820024,0,31.4050006866,B.J.rd,,1544415299264-1216152456-9_45_3.jpg,,21,,,81,,,No,,,,,,Yes,,,,,,,,,,,,No,,,,,,green,Yes,,,,,,,,,,,,,,,,,BMC tempo,No,,,,,,,,,,,,,,,,,,,,,,,,,,,,,19243655,c3cfdfd6-e2e1-4525-815e-e88f7e8e28e8,2018-12-10T05:24:01,,108
2018-12-10T09:49:07.769+06:30,2018-12-10T09:52:19.157+06:30,,Bhaskar,Bandstand apts,19.047671 72.819991 0 29.378999710083008,19.047671,72.819991,0,29.3789997101,B.J.rd,,1544415610527-1439484443-9_50_22.jpg,,19,,,70,,,No,,,,,,,,,,,,,,,,,,,,,,,,green,Yes,No,,,,,,,,,,,,,,,,Bmc tempo,No,,,,,,,,,,,,,,,,,,,,,,,,,,,,,19243656,7609235f-2b59-4825-9c4b-09947f5b5f79,2018-12-10T05:24:10,,109
2018-12-10T09:52:26.124+06:30,2018-12-10T09:57:02.719+06:30,,A.S.faruddin,Cafe sea side,19.046579 72.819754 -56.20000076293945 27.847000122070312,19.046579,72.819754,-56.2000007629,27.8470001221,B.J.rd,,1544415918923-590845250-9_55_25.jpg,,,,1,NA,,,No,,,,,,,,,,,,,,,,,,,,,,,,white,,,,,,,,,,,,,,,,,,BMC tempo,No,,,,,,,,,,,,,,,,,,,,,,,,,,,,,19243657,595fadfb-c04a-4787-b924-22dc3e87b68e,2018-12-10T05:24:17,,110
2018-12-10T09:57:10.430+06:30,2018-12-10T10:05:51.605+06:30,,Kamath,Fr.agnel ashram,19.045668 72.819535 -56.400001525878906 28.902999877929688,19.045668,72.819535,-56.4000015259,28.9029998779,B J.rd,,1544416142712-1270010664-9_59_13.jpg,,,,1,30,,,,,,,,,,,,,,,,,,,,,,,,,,,green,Yes,,,,,,,,,,,,,,,,,BMC tempo,Yes,,,,,,,,,,,,,,,,,,,,,,,,,,,,,19243659,f9c70e59-f36c-4082-afeb-31fdbca55f28,2018-12-10T05:24:27,,111
2018-12-10T10:05:59.432+06:30,2018-12-10T10:07:32.169+06:30,,Darayus,Bellevue,19.04468 72.819079 -56.29999923706055 26.152000427246094,19.04468,72.819079,-56.2999992371,26.1520004272,B.J.rd,,1544416568833-818538446-10_6_13.jpg,,,,1,6,,,,,,,,,,,,,,,,,,,,,,,,,,,green,Yes,,,,,,,,,,,,,,,,,,,,,,,,,,,,,,,,,,,,,,,,,,,,,,,19243661,7a11ee71-b9e7-4301-9db7-f1eba14d84ef,2018-12-10T05:24:38,,112
2018-12-10T10:07:40.802+06:30,2018-12-10T10:09:40.162+06:30,,Shehzad,Devdut,19.044526 72.819061 0 32.10100173950195,19.044526,72.819061,0,32.1010017395,B.J.rd,,1544416672001548449644-10_7_56.jpg,,17,,,48,,,No,,,,,,,,,,,,,,,,,,,,,,,,green,Yes,,,,,,,,,,,,,,,,,BMC tempo,,,,,,,,,,,,,,,,,,,,,,,,,,,,,,19243663,d5f6b02c-f39a-47b0-a474-01031f56973e,2018-12-10T05:24:51,,113
2018-12-10T10:09:49.626+06:30,2018-12-10T10:11:21.313+06:30,,,Wishpering rock,19.044425 72.819136 0 29.731000900268555,19.044425,72.819136,0,29.7310009003,B.J.rd,,15444168034091882912218-10_10_8.jpg,,,,1,3,,,No,,,,,,,,,,,,,,,,,,,,,,,,green,Yes,,,,,,,,,,,,,,,,,BMC tempo,,,,,,,,,,,,,,,,,,,,,,,,,,,,,,19243664,4cd93449-24c8-4206-a42d-3acbd199627b,2018-12-10T05:25:03,,114
2018-12-10T10:11:31.041+06:30,2018-12-10T10:22:36.122+06:30,,Vinci,Taj land ends,19.044199 72.81923 0 100,19.044199,72.81923,0,100,B.J.rd,,15444169273391248623590-10_12_18.jpg,,,,,NA,,,Yes,Aerobic,,,1,,,,,,,,,,,,,,,,,,,,green,Yes,,,,,,,,,,,,,,,,,,,,,,,,,,,,,,,,,,,,,,,,,,,,,,,19243665,3ac48891-7d42-4646-a918-5b3adfc20171,2018-12-10T05:25:14,,115
2018-12-10T10:49:15.830+06:30,2018-12-10T10:55:49.127+06:30,,Paresh,Vinaper castle,19.051342 72.822031 -58.599998474121094 37.5260009765625,19.051342,72.822031,-58.5999984741,37.5260009766,Parera Rd,,15444194621131048638540-10_54_36.jpg,,14,,,47,,,No,,,,,,,,,,,,,,,,,,,,,,,,green,Yes,,,,,,,,,,,,,,,,,BMC tempo,No,,,,,,,,,,,,,,,,,,,,,,,,,,,,,19243673,11f00911-370f-452a-8cdf-bbf66a2db49e,2018-12-10T05:26:07,,116
2018-12-10T10:55:50.129+06:30,2018-12-10T10:58:46.033+06:30,,,36,19.051277 72.82202 -58.599998474121094 25.816999435424805,19.051277,72.82202,-58.5999984741,25.8169994354,,,1544419655004-1554460702-10_57_49.jpg,,,,1,NA,,,,,,,,,,,,,,,,,,,,,No,,,,,,green,Yes,,,,,,,,,,,,,,,,,BMC tempo,No,,,,,,,,,,,,,,,,,,,,,,,,,,,,,19243688,cf8ba258-234a-4b6e-b76a-39cee9dd9983,2018-12-10T05:29:10,,117
2018-12-10T10:58:47.581+06:30,2018-12-10T11:01:05.602+06:30,,Prabhu,Vastu bandra,19.051605 72.822703 0 31.340999603271484,19.051605,72.822703,0,31.3409996033,Parera rd,,1544419747496399535305-10_59_10.jpg,,21,,,60,,,No,,,,,,,,,,,,,,,,,,No,,,,,,green,Yes,,,,,,,,,,,,,,,,,BMC tempo,No,,,,,,,,,,,,,,,,,,,,,,,,,,,,,19910517,20d0abd9-c90e-43d6-96fd-65cb360fcb94,2018-12-21T07:00:58,,118
